{
  "data": {
     "data":{
        "children":[
           {
              "data":{
                 "contest_mode":false,
                 "banned_by":null,
                 "domain":"i.imgur.com",
                 "subreddit":"aww",
                 "selftext_html":null,
                 "selftext":"",
                 "likes":null,
                 "suggested_sort":null,
                 "secure_media":null,
                 "saved":false,
                 "id":"54vsdq",
                 "gilded":0,
                 "clicked":false,
                 "report_reasons":null,
                 "author":"Alfie_13",
                 "media":null,
                 "name":"t3_54vsdq",
                 "score":6815,
                 "approved_by":null,
                 "over_18":false,
                 "removal_reason":null,
                 "hidden":false,
                 "preview":{
                    "images":[
                       {
                          "source":{
                             "url":"https://i.redditmedia.com/bTgIIj0ha08cQWLLqKHvaVZHUSG2IiIlvdTRioOxCAg.gif?fm=jpg&amp;s=8bf60c99ae676d6a113a53e61c041bee",
                             "width":720,
                             "height":404
                          },
                          "resolutions":[
                             {
                                "url":"https://i.redditmedia.com/bTgIIj0ha08cQWLLqKHvaVZHUSG2IiIlvdTRioOxCAg.gif?fit=crop&amp;crop=faces%2Centropy&amp;arh=2&amp;w=108&amp;fm=jpg&amp;s=f8752377ea9bdeb676137d3bdb9bd832",
                                "width":108,
                                "height":60
                             },
                             {
                                "url":"https://i.redditmedia.com/bTgIIj0ha08cQWLLqKHvaVZHUSG2IiIlvdTRioOxCAg.gif?fit=crop&amp;crop=faces%2Centropy&amp;arh=2&amp;w=216&amp;fm=jpg&amp;s=232cd587831bcc4857d8a73e879064e8",
                                "width":216,
                                "height":121
                             },
                             {
                                "url":"https://i.redditmedia.com/bTgIIj0ha08cQWLLqKHvaVZHUSG2IiIlvdTRioOxCAg.gif?fit=crop&amp;crop=faces%2Centropy&amp;arh=2&amp;w=320&amp;fm=jpg&amp;s=5e4ed9aee3f095b7d911d98b1c934cbb",
                                "width":320,
                                "height":179
                             },
                             {
                                "url":"https://i.redditmedia.com/bTgIIj0ha08cQWLLqKHvaVZHUSG2IiIlvdTRioOxCAg.gif?fit=crop&amp;crop=faces%2Centropy&amp;arh=2&amp;w=640&amp;fm=jpg&amp;s=b74e6f9716d9895e984fb1d52ed77b4e",
                                "width":640,
                                "height":359
                             }
                          ],
                          "variants":{
                             "gif":{
                                "source":{
                                   "url":"https://g.redditmedia.com/bTgIIj0ha08cQWLLqKHvaVZHUSG2IiIlvdTRioOxCAg.gif?s=56dfdd580ef04752ecfee96e0477a77d",
                                   "width":720,
                                   "height":404
                                },
                                "resolutions":[
                                   {
                                      "url":"https://g.redditmedia.com/bTgIIj0ha08cQWLLqKHvaVZHUSG2IiIlvdTRioOxCAg.gif?fit=crop&amp;crop=faces%2Centropy&amp;arh=2&amp;w=108&amp;s=8bfccac76b0b9f7146bfb673cddcec5e",
                                      "width":108,
                                      "height":60
                                   },
                                   {
                                      "url":"https://g.redditmedia.com/bTgIIj0ha08cQWLLqKHvaVZHUSG2IiIlvdTRioOxCAg.gif?fit=crop&amp;crop=faces%2Centropy&amp;arh=2&amp;w=216&amp;s=243773dffac853ac2a863f053649cc92",
                                      "width":216,
                                      "height":121
                                   },
                                   {
                                      "url":"https://g.redditmedia.com/bTgIIj0ha08cQWLLqKHvaVZHUSG2IiIlvdTRioOxCAg.gif?fit=crop&amp;crop=faces%2Centropy&amp;arh=2&amp;w=320&amp;s=db3af16266f87b686885b977780e0974",
                                      "width":320,
                                      "height":179
                                   },
                                   {
                                      "url":"https://g.redditmedia.com/bTgIIj0ha08cQWLLqKHvaVZHUSG2IiIlvdTRioOxCAg.gif?fit=crop&amp;crop=faces%2Centropy&amp;arh=2&amp;w=640&amp;s=cd50758fed832055d036384b634f9c89",
                                      "width":640,
                                      "height":359
                                   }
                                ]
                             },
                             "mp4":{
                                "source":{
                                   "url":"https://g.redditmedia.com/bTgIIj0ha08cQWLLqKHvaVZHUSG2IiIlvdTRioOxCAg.gif?fm=mp4&amp;mp4-fragmented=false&amp;s=13f3e59199086871cce5b5448f89a59a",
                                   "width":720,
                                   "height":404
                                },
                                "resolutions":[
                                   {
                                      "url":"https://g.redditmedia.com/bTgIIj0ha08cQWLLqKHvaVZHUSG2IiIlvdTRioOxCAg.gif?fit=crop&amp;crop=faces%2Centropy&amp;arh=2&amp;w=108&amp;fm=mp4&amp;mp4-fragmented=false&amp;s=4fd5c05ba08bf591e5512060e2856009",
                                      "width":108,
                                      "height":60
                                   },
                                   {
                                      "url":"https://g.redditmedia.com/bTgIIj0ha08cQWLLqKHvaVZHUSG2IiIlvdTRioOxCAg.gif?fit=crop&amp;crop=faces%2Centropy&amp;arh=2&amp;w=216&amp;fm=mp4&amp;mp4-fragmented=false&amp;s=9d6b6726ff54c64984544a38215d6cfa",
                                      "width":216,
                                      "height":121
                                   },
                                   {
                                      "url":"https://g.redditmedia.com/bTgIIj0ha08cQWLLqKHvaVZHUSG2IiIlvdTRioOxCAg.gif?fit=crop&amp;crop=faces%2Centropy&amp;arh=2&amp;w=320&amp;fm=mp4&amp;mp4-fragmented=false&amp;s=ec7b56b9db861c960369ca0b60517940",
                                      "width":320,
                                      "height":179
                                   },
                                   {
                                      "url":"https://g.redditmedia.com/bTgIIj0ha08cQWLLqKHvaVZHUSG2IiIlvdTRioOxCAg.gif?fit=crop&amp;crop=faces%2Centropy&amp;arh=2&amp;w=640&amp;fm=mp4&amp;mp4-fragmented=false&amp;s=dad2987165b8b946f59ea57a671c87b8",
                                      "width":640,
                                      "height":359
                                   }
                                ]
                             }
                          },
                          "id":"L5JGuTlffYbU4AUODD0c6tvDCO5EAo8tz8JPADLG10E"
                       }
                    ]
                 },
                 "thumbnail":"http://b.thumbs.redditmedia.com/APnJoQDhws3qga6r0Zm56gpMvgZtdcO1Ag7QhG6c4VQ.jpg",
                 "subreddit_id":"t5_2qh1o",
                 "edited":false,
                 "link_flair_css_class":null,
                 "author_flair_css_class":null,
                 "downs":0,
                 "mod_reports":[

                 ],
                 "archived":false,
                 "media_embed":{

                 },
                 "post_hint":"link",
                 "is_self":false,
                 "hide_score":false,
                 "permalink":"/r/aww/comments/54vsdq/dog_saves_kitty_with_head_stuck_in_a_bag/",
                 "locked":false,
                 "stickied":false,
                 "created":1475089464,
                 "url":"http://i.imgur.com/cmA2Piw.gifv",
                 "author_flair_text":null,
                 "quarantine":false,
                 "title":"Dog saves Kitty with head stuck in a bag.",
                 "created_utc":1475060664,
                 "link_flair_text":null,
                 "distinguished":null,
                 "num_comments":1239,
                 "visited":false,
                 "num_reports":null,
                 "ups":6815
              }
           },
           {
              "data":{
                 "contest_mode":false,
                 "banned_by":null,
                 "domain":"imgur.com",
                 "subreddit":"aww",
                 "selftext_html":null,
                 "selftext":"",
                 "likes":null,
                 "suggested_sort":null,
                 "user_reports":[

                 ],
                 "secure_media":null,
                 "saved":false,
                 "id":"54w0fg",
                 "gilded":0,
                 "secure_media_embed":{

                 },
                 "clicked":false,
                 "report_reasons":null,
                 "author":"GallowBoob",
                 "media":null,
                 "name":"t3_54w0fg",
                 "score":4261,
                 "approved_by":null,
                 "over_18":false,
                 "removal_reason":null,
                 "hidden":false,
                 "preview":{
                    "images":[
                       {
                          "source":{
                             "url":"https://i.redditmedia.com/h0X_gdTHZpCgPofmvxi6V73gd5P5fV3f--m2bECT55c.gif?fm=jpg&amp;s=b283ee70625380265c06c02f1e3f73d5",
                             "width":720,
                             "height":720
                          },
                          "resolutions":[
                             {
                                "url":"https://i.redditmedia.com/h0X_gdTHZpCgPofmvxi6V73gd5P5fV3f--m2bECT55c.gif?fit=crop&amp;crop=faces%2Centropy&amp;arh=2&amp;w=108&amp;fm=jpg&amp;s=33d30771918dc4c7e589129553fd2061",
                                "width":108,
                                "height":108
                             },
                             {
                                "url":"https://i.redditmedia.com/h0X_gdTHZpCgPofmvxi6V73gd5P5fV3f--m2bECT55c.gif?fit=crop&amp;crop=faces%2Centropy&amp;arh=2&amp;w=216&amp;fm=jpg&amp;s=c8041e3e87e6e25bee836393a680522a",
                                "width":216,
                                "height":216
                             },
                             {
                                "url":"https://i.redditmedia.com/h0X_gdTHZpCgPofmvxi6V73gd5P5fV3f--m2bECT55c.gif?fit=crop&amp;crop=faces%2Centropy&amp;arh=2&amp;w=320&amp;fm=jpg&amp;s=54d6af06104b1a85e6b6dde38904fcf4",
                                "width":320,
                                "height":320
                             },
                             {
                                "url":"https://i.redditmedia.com/h0X_gdTHZpCgPofmvxi6V73gd5P5fV3f--m2bECT55c.gif?fit=crop&amp;crop=faces%2Centropy&amp;arh=2&amp;w=640&amp;fm=jpg&amp;s=c2cc4d0b22aab6eba9cf20d2a165b009",
                                "width":640,
                                "height":640
                             }
                          ],
                          "variants":{
                             "gif":{
                                "source":{
                                   "url":"https://g.redditmedia.com/h0X_gdTHZpCgPofmvxi6V73gd5P5fV3f--m2bECT55c.gif?s=3cebf1ca12297ce8590cad631869ed3b",
                                   "width":720,
                                   "height":720
                                },
                                "resolutions":[
                                   {
                                      "url":"https://g.redditmedia.com/h0X_gdTHZpCgPofmvxi6V73gd5P5fV3f--m2bECT55c.gif?fit=crop&amp;crop=faces%2Centropy&amp;arh=2&amp;w=108&amp;s=b3b4fb62335b85c667f81841ba9d58bf",
                                      "width":108,
                                      "height":108
                                   },
                                   {
                                      "url":"https://g.redditmedia.com/h0X_gdTHZpCgPofmvxi6V73gd5P5fV3f--m2bECT55c.gif?fit=crop&amp;crop=faces%2Centropy&amp;arh=2&amp;w=216&amp;s=a9df8f40100fb57d39396f9e290cf7d9",
                                      "width":216,
                                      "height":216
                                   },
                                   {
                                      "url":"https://g.redditmedia.com/h0X_gdTHZpCgPofmvxi6V73gd5P5fV3f--m2bECT55c.gif?fit=crop&amp;crop=faces%2Centropy&amp;arh=2&amp;w=320&amp;s=a8bbb757071ad79de888c1265d693423",
                                      "width":320,
                                      "height":320
                                   },
                                   {
                                      "url":"https://g.redditmedia.com/h0X_gdTHZpCgPofmvxi6V73gd5P5fV3f--m2bECT55c.gif?fit=crop&amp;crop=faces%2Centropy&amp;arh=2&amp;w=640&amp;s=de017fb787a502ba05eb88b82f76870e",
                                      "width":640,
                                      "height":640
                                   }
                                ]
                             },
                             "mp4":{
                                "source":{
                                   "url":"https://g.redditmedia.com/h0X_gdTHZpCgPofmvxi6V73gd5P5fV3f--m2bECT55c.gif?fm=mp4&amp;mp4-fragmented=false&amp;s=15035564db3d6e2a0224802b57d0989b",
                                   "width":720,
                                   "height":720
                                },
                                "resolutions":[
                                   {
                                      "url":"https://g.redditmedia.com/h0X_gdTHZpCgPofmvxi6V73gd5P5fV3f--m2bECT55c.gif?fit=crop&amp;crop=faces%2Centropy&amp;arh=2&amp;w=108&amp;fm=mp4&amp;mp4-fragmented=false&amp;s=69ff0934be394504b05e14eeb200ae66",
                                      "width":108,
                                      "height":108
                                   },
                                   {
                                      "url":"https://g.redditmedia.com/h0X_gdTHZpCgPofmvxi6V73gd5P5fV3f--m2bECT55c.gif?fit=crop&amp;crop=faces%2Centropy&amp;arh=2&amp;w=216&amp;fm=mp4&amp;mp4-fragmented=false&amp;s=c683640c30f9890e184b131f6c61aaaa",
                                      "width":216,
                                      "height":216
                                   },
                                   {
                                      "url":"https://g.redditmedia.com/h0X_gdTHZpCgPofmvxi6V73gd5P5fV3f--m2bECT55c.gif?fit=crop&amp;crop=faces%2Centropy&amp;arh=2&amp;w=320&amp;fm=mp4&amp;mp4-fragmented=false&amp;s=a31adee7575c1cd125c6260d986695ef",
                                      "width":320,
                                      "height":320
                                   },
                                   {
                                      "url":"https://g.redditmedia.com/h0X_gdTHZpCgPofmvxi6V73gd5P5fV3f--m2bECT55c.gif?fit=crop&amp;crop=faces%2Centropy&amp;arh=2&amp;w=640&amp;fm=mp4&amp;mp4-fragmented=false&amp;s=0e694f02af7d2ff58ba0f6aacb0c185e",
                                      "width":640,
                                      "height":640
                                   }
                                ]
                             }
                          },
                          "id":"SBo5cbUV9hHmL8jWXhSjmoT1FHmlvrKg3ugTqYO7kuw"
                       }
                    ]
                 },
                 "thumbnail":"http://b.thumbs.redditmedia.com/XzFiOF3ey8yi993BSabX0lQTbNDZ9tflJw-lv_Zou3g.jpg",
                 "subreddit_id":"t5_2qh1o",
                 "edited":false,
                 "link_flair_css_class":null,
                 "author_flair_css_class":null,
                 "downs":0,
                 "mod_reports":[

                 ],
                 "archived":false,
                 "media_embed":{

                 },
                 "post_hint":"link",
                 "is_self":false,
                 "hide_score":false,
                 "permalink":"/r/aww/comments/54w0fg/owl_kisses/",
                 "locked":false,
                 "stickied":false,
                 "created":1475093637,
                 "url":"http://imgur.com/68O3L4Z.gifv",
                 "author_flair_text":null,
                 "quarantine":false,
                 "title":"Owl kisses",
                 "created_utc":1475064837,
                 "link_flair_text":null,
                 "distinguished":null,
                 "num_comments":190,
                 "visited":false,
                 "num_reports":null,
                 "ups":4261
              }
           }
        ]
     }
  }
}
